…
load("~/Dropbox/ToolShed_draft/dftoronto.RData")
day <- seq.Date(from = as.Date("2020/03/01"),
                         to = as.Date("2020/11/21"), by = 1)

tdata <- tibble(Day = day, mob = data$mob, cases = data$cases)
toronto <- tdata %>%
  as_tsibble(index = Day)
toronto
```

```
## # A tsibble: 266 x 3 [1D]
##    Day             mob cases
##    <date>        <dbl> <dbl>
##  1 2020-03-01 -0.0172      4
##  2 2020-03-02 -0.0320      6
##  3 2020-03-03 -0.0119     10
##  4 2020-03-04  0.0186      7
##  5 2020-03-05  0.0223      7
##  6 2020-03-06 -0.00626    10
##  7 2020-03-07  0.0261      8
##  8 2020-03-08  0.0273     10
##  9 2020-03-09 -0.0158     18
## 10 2020-03-10 -0.0521     29
## # … with 256 more rows
```
…
