Chapter 21 ARIMA models | Toolbox for Social Scientists and Policy Analysts
…
tdata <- tibble(Day = day,
                mob = data$mob,
                cases = data$cases)

toronto <- tdata %>%
  as_tsibble(index = Day)

toronto

## # A tsibble: 266 x 3 [1D]
##    Day             mob cases
##    <date>        <dbl> <dbl>
##  1 2020-03-01 -0.0172      4
##  2 2020-03-02 -0.0320      6
##  3 2020-03-03 -0.0119     10
##  4 2020-03-04  0.0186      7
##  5 2020-03-05  0.0223      7
##  6 2020-03-06 -0.00626    10
##  7 2020-03-07  0.0261      8
##  8 2020-03-08  0.0273     10
##  9 2020-03-09 -0.0158     18
## 10 2020-03-10 -0.0521     29
## # … with 256 more rows
…
There are several significant spikes in the ACF. But, the model passes the Ljung-Box test at the 5 percent significance level.

Meanwhile, a model without white noise errors can still be used for forecasting, but the prediction intervals may not be accurate due to the correlated residuals. Sometimes, we cannot find a model that passes this test. In practice, we may have to look at the tradeoff between prediction accuracy and reliable confidence intervals. If the difference is too high, we may chose the best model with the highest prediction accuracy.

Before looking at a cross-validation approach for model selection in ARIMA modeling, let use our model to predict a week ahead (2020-11-22 to 2020-11-28):

fc <- covfit %>%
  forecast(h = 7)
fc

## # A fable: 21 x 4 [1D]
## # Key:     .model [3]
##    .model Day           boxcases .mean
##    <chr>  <date>          <dist> <dbl>
##  1 AR2    2020-11-22 N(12, 0.53)  12.1
##  2 AR2    2020-11-23 N(13, 0.68)  13.3
##  3 AR2    2020-11-24 N(13, 0.87)  12.8
##  4 AR2    2020-11-25  N(13, 1.1)  12.8
##  5 AR2    2020-11-26  N(12, 1.3)  12.2
##  6 AR2    2020-11-27  N(12, 1.5)  12.3
##  7 AR2    2020-11-28  N(12, 1.7)  11.5
##  8 MA3    2020-11-22 N(12, 0.48)  12.4
##  9 MA3    2020-11-23 N(13, 0.63)  13.2
## 10 MA3    2020-11-24 N(13, 0.87)  13.1
## # … with 11 more rows
…
